{
  "files": {
    "main.css": "/static/css/main.bedd5ab1.chunk.css",
    "main.js": "/static/js/main.a343529f.chunk.js",
    "main.js.map": "/static/js/main.a343529f.chunk.js.map",
    "runtime-main.js": "/static/js/runtime-main.57859c43.js",
    "runtime-main.js.map": "/static/js/runtime-main.57859c43.js.map",
    "static/css/2.de424728.chunk.css": "/static/css/2.de424728.chunk.css",
    "static/js/2.e0737797.chunk.js": "/static/js/2.e0737797.chunk.js",
    "static/js/2.e0737797.chunk.js.map": "/static/js/2.e0737797.chunk.js.map",
    "index.html": "/index.html",
    "precache-manifest.010e2cf48afebb5e82324d9b6e4388dc.js": "/precache-manifest.010e2cf48afebb5e82324d9b6e4388dc.js",
    "service-worker.js": "/service-worker.js",
    "static/css/2.de424728.chunk.css.map": "/static/css/2.de424728.chunk.css.map",
    "static/css/main.bedd5ab1.chunk.css.map": "/static/css/main.bedd5ab1.chunk.css.map",
    "static/js/2.e0737797.chunk.js.LICENSE.txt": "/static/js/2.e0737797.chunk.js.LICENSE.txt",
    "static/media/Browser Not Supported.png": "/static/media/Browser Not Supported.db1a917f.png",
    "static/media/Default Avatar Personal Circle.png": "/static/media/Default Avatar Personal Circle.6acd4249.png",
    "static/media/Full.png": "/static/media/Full.11f488e6.png",
    "static/media/man.png": "/static/media/man.9bec369f.png",
    "static/media/woman.png": "/static/media/woman.0958a1cd.png"
  },
  "entrypoints": [
    "static/js/runtime-main.57859c43.js",
    "static/css/2.de424728.chunk.css",
    "static/js/2.e0737797.chunk.js",
    "static/css/main.bedd5ab1.chunk.css",
    "static/js/main.a343529f.chunk.js"
  ]
}